{
	"$schema": "/etc/xdg/swaync/configSchema.json",

	"positionX": "right",
	"positionY": "top",
	"control-center-margin-top": 5,
	"control-center-margin-bottom": 5,
	"control-center-margin-right": 5,
	"control-center-margin-left": 5,
	"control-center-width": 400,
	"fit-to-screen": true,

	"layer": "top",
	"cssPriority": "user",
	"notification-icon-size": 64,
	"notification-body-image-height": 100,
	"notification-body-image-width": 200,
	"timeout": 7,
	"timeout-low": 5,
	"timeout-critical": 0,
	"notification-window-width": 350,
	"keyboard-shortcuts": true,
	"image-visibility": "when-available",
	"transition-time": 200,
	"hide-on-clear": true,
	"hide-on-action": true,
	"script-fail-notify": true,

	"widgets": [
		"menubar",
		"volume",
		"buttons-grid",
		"mpris",
		"title",
		"notifications"
	],
	"widget-config": {
		"volume": {
			"label": "",
			"show-per-app": true,
			"empty-list-label": "No programs are playing...",
			"expand-button-label": "",
			"collapse-button-label": ""
		},
		"buttons-grid": {
			"actions": [
				{
					"label": "󰖩 Wi-Fi       ",
					"command": "swaync-client -t;alacritty -T 'nmtui-popup' -e 'nmtui'"
				},
				{
					"label": "󰂯 Bluetooth",
					"command": "swaync-client -t;blueman-manager"
				}
			]
		},
		"menubar": {
			"buttons#misc": {
				"position": "left",
				"actions": [
					{
						"label": "󰌾",
						"command": "swaync-client -t;gtklock"
					},
					{
						"label": "󱄠",
						"command": "swaync-client -t;pavucontrol"
					},
					{
						"label": "󱩌",
						"command": "pgrep wlsunset >/dev/null 2>&1 && pkill wlsunset || wlsunset -l 51.507351 -L -0.127758 &"
					},
					{
						"label": "󰘿",
						"command": "swaync-client -t;alacritty -T 'onedrive-popup' -e 'onedrive' -- --synchronize"
					},
					{
						"label": "",
						"command": "swaync-client -t;eww kill;eww daemon;sleep 1;eww open bar"
					},
					{
						"label": "󰨇",
						"command": "swaync-client -t;alacritty -T 'btop-popup' -e 'btop'"
					},
					{
						"label": "󰐥",
						"command": "swaync-client -t;wlogout -b 1 -p layer-shell"
					}
				]
			}
		},
		"mpris": {
			"image-size": 96,
			"image-radius": 12
		},
		"title": {
			"text": "Notifications",
			"clear-all-button": true,
			"button-text": "Clear All"
		}
	}
}
